Predicting Credit Card Fraud
…
  mutate(dateTime = lubridate::ymd_hms(e[e$transactionAmount != 0, 5])) %>%
  select(-one_of(c('transactionDateTime'))) %>%
  mutate(date = as.Date(dateTime)) %>%
  mutate(isFraud = ifelse(isFraud == 'TRUE', 1, 0), # convert to numeric
         expirationDateKeyInMatch = ifelse(expirationDateKeyInMatch == 'TRUE', 1, 0), # ditto
         cardPresent = ifelse(cardPresent == 'TRUE', 1, 0)) %>% # ditto
  filter(transactionType == 'PURCHASE') %>%
  mutate(merchantCategoryCode = as.numeric(as.factor(merchantCategoryCode))) %>%
  filter(isFraud == 1) %>%
  group_by(merchantName, isFraud) %>%
  count() %>%
  arrange(desc(n)) %>%
  print(n=22) # top 22 with count >= 100

## # A tibble: 100 × 3
## # Groups:   merchantName, isFraud [100]
##    merchantName            isFraud     n
##    <chr>                     <dbl> <int>
##  1 walmart.com                   1    35
##  2 Uber                          1    16
##  3 ebay.com                      1    13
##  4 Lyft                          1    10
##  5 sears.com                     1    10
##  6 gap.com                       1     9
##  7 apple.com                     1     8
##  8 cheapfast.com                 1     8
##  9 discount.com                  1     6
## 10 staples.com                   1     6
## 11 Fresh eCards                  1     5
## 12 West End Beauty #178111       1     5
## 13 West End Beauty #234021       1     5
## 14 West End Beauty #26875        1     5
## 15 target.com                    1     5
## 16 Franks Pub #934222            1     4
## 17 West End Beauty #542603       1     4
## 18 alibaba.com                   1     4
## 19 oldnavy.com                   1     4
## 20 West End Beauty #195148       1     3
## 21 West End Beauty #373881       1     3
## 22 Boston Fries                  1     2
## # ℹ 78 more rows
…
